{
  "include": ["./node_modules/cypress", "cypress/**/*.js"],
  "compilerOptions": {
    "target": "es5",
    "lib": ["es5", "dom"],
    "types": ["cypress", "node"],
    "baseUrl": ".",
    "paths": {
      "@actions/*": ["cypress/support/actions/*"],
      "@services/*": ["cypress/support/services/*"],
      "@repositories/*": ["cypress/support/repositories/*"],
      "@scenarios/*": ["cypress/support/scenarios/*"]
    }
  }
}
