{
  "sprinque.paymentModal.companyAddress.addressLabel": "Indirizzo",
  "sprinque.paymentModal.companyAddress.apartmentLabel": "Appartamento, suite, ecc.",
  "sprinque.paymentModal.companyAddress.cityLabel": "Città",
  "sprinque.paymentModal.companyAddress.countryLabel": "Paese",
  "sprinque.paymentModal.companyAddress.countryPlaceholder": "Seleziona",
  "sprinque.paymentModal.companyAddress.description": "Si prega di aggiungere qui l'indirizzo del luogo in cui la vostra azienda è iscritta alla Camera di Commercio.",
  "sprinque.paymentModal.companyAddress.postalCodeLabel": "Codice postale",
  "sprinque.paymentModal.companyAddress.title": "Indirizzo dell'azienda",
  "sprinque.paymentModal.confirmOrder": "Confermare l'ordine",
  "sprinque.paymentModal.days": "%days% giorni",
  "sprinque.paymentModal.doNotMissOut.description": "Ci sei quasi! Non chiudete o aggiornate la pagina, verrete automaticamente reindirizzati alla pagina di conferma dell'ordine. Ci vorrà solo un attimo, grazie per la pazienza!",
  "sprinque.paymentModal.doNotMissOut.title": "Non perdete l'occasione di acquistare",
  "sprinque.paymentModal.exception.description": "Ci scusiamo per l'inconveniente, ma sembra che si sia verificato un errore imprevisto. Si prega di riprovare più tardi o di selezionare un metodo di pagamento alternativo.\nSi prega di chiudere questo modale per esplorare altre opzioni disponibili. Gli articoli rimarranno nel carrello.",
  "sprinque.paymentModal.exception.title": "Non siamo in grado di fornire l'opzione di pagamento tramite fattura.",
  "sprinque.paymentModal.free": "Gratuito",
  "sprinque.paymentModal.manualReview.description": "Eseguiremo una revisione manuale della vostra azienda, un processo che di solito si conclude entro 24 ore. Una volta completata la verifica, vi comunicheremo tempestivamente via e-mail la decisione di credito.",
  "sprinque.paymentModal.manualReview.reject.description": "Purtroppo non possiamo offrire alla vostra azienda la possibilità di pagare con fattura. Tuttavia, è possibile procedere all'acquisto selezionando un metodo di pagamento alternativo. Chiudere questa finestra di dialogo per esplorare le altre opzioni disponibili. Gli articoli rimarranno nel carrello.",
  "sprinque.paymentModal.manualReview.reject.title": "Non siamo in grado di fornire l'opzione di pagamento tramite fattura.",
  "sprinque.paymentModal.manualReview.title": "Revisione manuale",
  "sprinque.paymentModal.next": "Prossimo",
  "sprinque.paymentModal.percentPrice": "+ %percent%% (%price%)",
  "sprinque.paymentModal.prev": "Prev",
  "sprinque.paymentModal.searchBusiness.billingOrAccountsLabel": "Email di fatturazione o contabilità",
  "sprinque.paymentModal.searchBusiness.billingOrAccountsPlaceholder": "Email di fatturazione o di contabilità...",
  "sprinque.paymentModal.searchBusiness.cantFindYourBusiness": "Non riuscite a trovare la vostra attività?",
  "sprinque.paymentModal.searchBusiness.companyNameType": "Nome dell'azienda",
  "sprinque.paymentModal.searchBusiness.countryLabel": "Paese",
  "sprinque.paymentModal.searchBusiness.countryPlaceholder": "Seleziona",
  "sprinque.paymentModal.searchBusiness.description": "Abbiamo solo bisogno di alcuni dati della vostra azienda per effettuare un rapido controllo del credito. Ci vogliono solo pochi minuti.",
  "sprinque.paymentModal.searchBusiness.registrationNumberLabel": "Numero di registrazione",
  "sprinque.paymentModal.searchBusiness.registrationNumberPlaceholder": "Numero di registrazione...",
  "sprinque.paymentModal.searchBusiness.search": "Ricerca",
  "sprinque.paymentModal.searchBusiness.title": "Seleziona la tua attività",
  "sprinque.paymentModal.searchBusiness.vatIDType": "PARTITA IVA",
  "sprinque.paymentModal.searchBusiness.youCanContinueByManuallyFilling": "È possibile continuare compilando manualmente i dati sottostanti.",
  "sprinque.paymentModal.step": "Passo %step%/%total%",
  "sprinque.paymentModal.terms.description": "È stata approvata la possibilità di pagare con termini netti o a rate. Scegliete l'opzione più adatta alla vostra azienda",
  "sprinque.paymentModal.terms.netTerm": "Termini netti",
  "sprinque.paymentModal.terms.payTheTotalAmountAnytime": "Pagare l'importo totale in qualsiasi momento entro la data di scadenza",
  "sprinque.paymentModal.terms.title": "Congratulazioni!",
  "sprinque.paymentModal.thanksForYourPatience.description": "Stiamo effettuando un rapido controllo del credito della vostra azienda. Rimanete sintonizzati, vi informeremo a breve dell'esito.",
  "sprinque.paymentModal.thanksForYourPatience.title": "Grazie per la vostra pazienza",
  "sprinque.paymentModal.totalAmount": "Importo totale",
  "sprinque.paymentModal.useAnotherPaymentMethod": "Utilizzare un altro metodo di pagamento",
  "sprinque.paymentModal.verifyEmail.description": "Abbiamo inviato un codice di verifica all'indirizzo <b>%email%</b>.",
  "sprinque.paymentModal.verifyEmail.emailNotReceived": "Non avete ricevuto l'e-mail?",
  "sprinque.paymentModal.verifyEmail.invalidOtpMessage": "Il codice inserito non è corretto. Si prega di riprovare",
  "sprinque.paymentModal.verifyEmail.resendCounter": "(in <span id='resend-timer'>30</span> secondi)",
  "sprinque.paymentModal.verifyEmail.resendEmail": "Fare clic per inviare nuovamente",
  "sprinque.paymentModal.verifyEmail.title": "Verificare l'e-mail",
  "sprinque.paymentModal.waitForAManualReview": "Attendere una revisione manuale"
}