{
  "sprinque.paymentModal.companyAddress.addressLabel": "Adresse",
  "sprinque.paymentModal.companyAddress.apartmentLabel": "Wohnung, Appartement, etc.",
  "sprinque.paymentModal.companyAddress.cityLabel": "Stadt",
  "sprinque.paymentModal.companyAddress.countryLabel": "Land",
  "sprinque.paymentModal.companyAddress.countryPlaceholder": "Auswählen",
  "sprinque.paymentModal.companyAddress.description": "Bitte geben Sie hier die Adresse an, unter der Ihr Unternehmen bei der Handelskammer eingetragen ist.",
  "sprinque.paymentModal.companyAddress.postalCodeLabel": "Postleitzahl",
  "sprinque.paymentModal.companyAddress.title": "Adresse des Unternehmens",
  "sprinque.paymentModal.confirmOrder": "Bestellung bestätigen",
  "sprinque.paymentModal.days": "%days% Tage",
  "sprinque.paymentModal.doNotMissOut.description": "Sie sind fast am Ziel! Bitte schließen oder aktualisieren Sie die Seite nicht, Sie werden automatisch auf die Seite mit der Bestellbestätigung weitergeleitet. Es dauert nur noch einen Moment, vielen Dank für Ihre Geduld!",
  "sprinque.paymentModal.doNotMissOut.title": "Verpassen Sie nicht Ihren Kauf",
  "sprinque.paymentModal.exception.description": "Wir entschuldigen uns für die Unannehmlichkeiten, aber es scheint, dass ein unerwarteter Fehler aufgetreten ist. Bitte versuchen Sie es später noch einmal oder wählen Sie eine andere Zahlungsmethode.\nBitte schließen Sie dieses Modal, um andere verfügbare Optionen zu prüfen. Ihre Artikel verbleiben in Ihrem Warenkorb.",
  "sprinque.paymentModal.exception.title": "Wir können nicht die Option der Zahlung per Rechnung anbieten",
  "sprinque.paymentModal.free": "Kostenlos",
  "sprinque.paymentModal.manualReview.description": "Wir führen eine manuelle Prüfung Ihres Unternehmens durch, die in der Regel innerhalb von 24 Stunden abgeschlossen ist. Sobald die Prüfung abgeschlossen ist, werden wir Sie umgehend per E-Mail über die Kreditentscheidung informieren.",
  "sprinque.paymentModal.manualReview.reject.description": "Leider können wir Ihrem Unternehmen nicht die Möglichkeit bieten, per Rechnung zu bezahlen. Sie können jedoch mit Ihrem Kauf fortfahren, indem Sie eine alternative Zahlungsmethode wählen. Bitte schließen Sie dieses Modal, um andere verfügbare Optionen zu prüfen. Ihre Artikel verbleiben in Ihrem Warenkorb.",
  "sprinque.paymentModal.manualReview.reject.title": "Wir können nicht die Option der Zahlung per Rechnung anbieten",
  "sprinque.paymentModal.manualReview.title": "Manuelle Überprüfung",
  "sprinque.paymentModal.next": "Weiter",
  "sprinque.paymentModal.percentPrice": "+ %percent%% (%price%)",
  "sprinque.paymentModal.prev": "Prev",
  "sprinque.paymentModal.searchBusiness.billingOrAccountsLabel": "E-Mail für Rechnungsstellung oder Kreditorenbuchhaltung",
  "sprinque.paymentModal.searchBusiness.billingOrAccountsPlaceholder": "E-Mail für Rechnungsstellung oder Kreditorenbuchhaltung...",
  "sprinque.paymentModal.searchBusiness.cantFindYourBusiness": "Sie können Ihr Unternehmen nicht finden?",
  "sprinque.paymentModal.searchBusiness.companyNameType": "Firmenname",
  "sprinque.paymentModal.searchBusiness.countryLabel": "Land",
  "sprinque.paymentModal.searchBusiness.countryPlaceholder": "Auswählen",
  "sprinque.paymentModal.searchBusiness.description": "Wir benötigen nur einige Angaben zu Ihrem Unternehmen, um eine schnelle Kreditprüfung durchzuführen. Das dauert nur ein paar Minuten.",
  "sprinque.paymentModal.searchBusiness.registrationNumberLabel": "Zulassungsnummer",
  "sprinque.paymentModal.searchBusiness.registrationNumberPlaceholder": "Registrierungsnummer...",
  "sprinque.paymentModal.searchBusiness.search": "Suche",
  "sprinque.paymentModal.searchBusiness.title": "Wählen Sie Ihr Unternehmen",
  "sprinque.paymentModal.searchBusiness.vatIDType": "UMSATZSTEUERIDENTIFIKATIONSNUMMER",
  "sprinque.paymentModal.searchBusiness.youCanContinueByManuallyFilling": "Sie können fortfahren, indem Sie die nachstehenden Angaben manuell ausfüllen.",
  "sprinque.paymentModal.step": "Schritt %step%/%total%",
  "sprinque.paymentModal.terms.description": "Sie haben die Genehmigung erhalten, mit Nettobedingungen oder in Raten zu zahlen. Wählen Sie die Option, die am besten zu Ihrem Unternehmen passt",
  "sprinque.paymentModal.terms.netTerm": "Nettobedingungen",
  "sprinque.paymentModal.terms.payTheTotalAmountAnytime": "Zahlen Sie den Gesamtbetrag jederzeit innerhalb des Fälligkeitsdatums",
  "sprinque.paymentModal.terms.title": "Herzlichen Glückwunsch!",
  "sprinque.paymentModal.thanksForYourPatience.description": "Wir führen gerade eine schnelle Kreditprüfung Ihres Unternehmens durch. Bleiben Sie dran, wir werden Sie in Kürze über das Ergebnis informieren.",
  "sprinque.paymentModal.thanksForYourPatience.title": "Vielen Dank für Ihre Geduld",
  "sprinque.paymentModal.totalAmount": "Gesamtbetrag",
  "sprinque.paymentModal.useAnotherPaymentMethod": "Verwenden Sie eine andere Zahlungsmethode",
  "sprinque.paymentModal.verifyEmail.description": "Wir haben einen Verifizierungscode an <b>%email%</b> geschickt.",
  "sprinque.paymentModal.verifyEmail.emailNotReceived": "Sie haben die E-Mail nicht erhalten?",
  "sprinque.paymentModal.verifyEmail.invalidOtpMessage": "Der von Ihnen eingegebene Code ist falsch. Bitte versuchen Sie es erneut",
  "sprinque.paymentModal.verifyEmail.resendCounter": "(in <span id='resend-timer'>30</span> Sekunden)",
  "sprinque.paymentModal.verifyEmail.resendEmail": "Zum erneuten Senden anklicken",
  "sprinque.paymentModal.verifyEmail.title": "Überprüfen Sie Ihre E-Mail",
  "sprinque.paymentModal.waitForAManualReview": "Warten auf eine manuelle Überprüfung"
}