<svg width="147" height="23" viewBox="0 0 147 23" fill="none" xmlns="http://www.w3.org/2000/svg">
<path d="M1.83061 16.5723V6.39045H5.27095C6.06972 6.39045 6.72266 6.53462 7.22976 6.82298C7.74018 7.10801 8.11802 7.49414 8.36328 7.98136C8.60855 8.46857 8.73118 9.01213 8.73118 9.61204C8.73118 10.2119 8.60855 10.7572 8.36328 11.2477C8.12133 11.7382 7.7468 12.1293 7.2397 12.421C6.7326 12.7093 6.08298 12.8535 5.29084 12.8535H2.82493V11.7598H5.25107C5.79794 11.7598 6.2371 11.6653 6.56854 11.4764C6.89998 11.2875 7.14027 11.0323 7.28942 10.7108C7.44188 10.3859 7.51811 10.0197 7.51811 9.61204C7.51811 9.20437 7.44188 8.83978 7.28942 8.51829C7.14027 8.19679 6.89832 7.9449 6.56357 7.76261C6.22881 7.577 5.78468 7.4842 5.23118 7.4842H3.06357V16.5723H1.83061ZM13.5785 16.7314C12.8891 16.7314 12.2842 16.5673 11.7638 16.2392C11.2468 15.911 10.8424 15.452 10.5508 14.862C10.2624 14.2721 10.1183 13.5827 10.1183 12.7939C10.1183 11.9984 10.2624 11.304 10.5508 10.7108C10.8424 10.1175 11.2468 9.65678 11.7638 9.32866C12.2842 9.00053 12.8891 8.83647 13.5785 8.83647C14.2679 8.83647 14.8711 9.00053 15.3881 9.32866C15.9085 9.65678 16.3129 10.1175 16.6012 10.7108C16.8929 11.304 17.0387 11.9984 17.0387 12.7939C17.0387 13.5827 16.8929 14.2721 16.6012 14.862C16.3129 15.452 15.9085 15.911 15.3881 16.2392C14.8711 16.5673 14.2679 16.7314 13.5785 16.7314ZM13.5785 15.6774C14.1022 15.6774 14.533 15.5431 14.8711 15.2747C15.2092 15.0062 15.4594 14.6532 15.6218 14.2157C15.7842 13.7782 15.8654 13.3043 15.8654 12.7939C15.8654 12.2834 15.7842 11.8078 15.6218 11.367C15.4594 10.9262 15.2092 10.5699 14.8711 10.2981C14.533 10.0263 14.1022 9.89045 13.5785 9.89045C13.0548 9.89045 12.6239 10.0263 12.2859 10.2981C11.9478 10.5699 11.6976 10.9262 11.5352 11.367C11.3728 11.8078 11.2915 12.2834 11.2915 12.7939C11.2915 13.3043 11.3728 13.7782 11.5352 14.2157C11.6976 14.6532 11.9478 15.0062 12.2859 15.2747C12.6239 15.5431 13.0548 15.6774 13.5785 15.6774ZM20.3001 16.5723L17.9734 8.9359H19.2063L20.8569 14.7825H20.9364L22.5671 8.9359H23.82L25.4308 14.7626H25.5103L27.1609 8.9359H28.3938L26.0671 16.5723H24.9137L23.2433 10.7058H23.1239L21.4535 16.5723H20.3001ZM32.8869 16.7314C32.1511 16.7314 31.5164 16.569 30.9828 16.2441C30.4525 15.916 30.0431 15.4586 29.7548 14.872C29.4698 14.282 29.3272 13.5959 29.3272 12.8137C29.3272 12.0315 29.4698 11.3422 29.7548 10.7456C30.0431 10.1457 30.4442 9.67833 30.9579 9.34357C31.475 9.0055 32.0782 8.83647 32.7676 8.83647C33.1653 8.83647 33.5581 8.90276 33.9458 9.03533C34.3336 9.16791 34.6866 9.38334 35.0048 9.68164C35.323 9.97662 35.5765 10.3677 35.7654 10.8549C35.9544 11.3422 36.0488 11.9421 36.0488 12.6547V13.1518H30.1625V12.1376H34.8556C34.8556 11.7067 34.7695 11.3223 34.5971 10.9842C34.4281 10.6461 34.1861 10.3793 33.8713 10.1838C33.5597 9.98822 33.1918 9.89045 32.7676 9.89045C32.3002 9.89045 31.8959 10.0065 31.5545 10.2385C31.2164 10.4672 30.9563 10.7654 30.774 11.1333C30.5917 11.5012 30.5005 11.8957 30.5005 12.3166V12.9927C30.5005 13.5694 30.6 14.0583 30.7988 14.4593C31.001 14.8571 31.2811 15.1603 31.639 15.3691C31.997 15.5746 32.4129 15.6774 32.8869 15.6774C33.1951 15.6774 33.4735 15.6343 33.7221 15.5481C33.974 15.4586 34.1911 15.3261 34.3734 15.1504C34.5557 14.9714 34.6966 14.7493 34.796 14.4842L35.9295 14.8024C35.8102 15.1868 35.6097 15.5249 35.3279 15.8166C35.0462 16.1049 34.6982 16.3303 34.2839 16.4927C33.8696 16.6518 33.4039 16.7314 32.8869 16.7314ZM37.8336 16.5723V8.9359H38.9672V10.0893H39.0467C39.1859 9.71147 39.4378 9.40489 39.8024 9.16957C40.167 8.93424 40.5779 8.81658 41.0353 8.81658C41.1215 8.81658 41.2292 8.81824 41.3585 8.82156C41.4877 8.82487 41.5855 8.82984 41.6518 8.83647V10.0297C41.612 10.0197 41.5209 10.0048 41.3784 9.98491C41.2392 9.96171 41.0917 9.95011 40.9359 9.95011C40.5647 9.95011 40.2333 10.028 39.9416 10.1838C39.6532 10.3362 39.4245 10.5484 39.2555 10.8201C39.0898 11.0886 39.0069 11.3952 39.0069 11.7399V16.5723H37.8336ZM46.0119 16.7314C45.2761 16.7314 44.6414 16.569 44.1078 16.2441C43.5775 15.916 43.1681 15.4586 42.8798 14.872C42.5948 14.282 42.4522 13.5959 42.4522 12.8137C42.4522 12.0315 42.5948 11.3422 42.8798 10.7456C43.1681 10.1457 43.5692 9.67833 44.0829 9.34357C44.6 9.0055 45.2032 8.83647 45.8926 8.83647C46.2903 8.83647 46.6831 8.90276 47.0708 9.03533C47.4586 9.16791 47.8116 9.38334 48.1298 9.68164C48.448 9.97662 48.7015 10.3677 48.8904 10.8549C49.0794 11.3422 49.1738 11.9421 49.1738 12.6547V13.1518H43.2875V12.1376H47.9806C47.9806 11.7067 47.8945 11.3223 47.7221 10.9842C47.5531 10.6461 47.3111 10.3793 46.9963 10.1838C46.6847 9.98822 46.3168 9.89045 45.8926 9.89045C45.4252 9.89045 45.0209 10.0065 44.6795 10.2385C44.3414 10.4672 44.0813 10.7654 43.899 11.1333C43.7167 11.5012 43.6255 11.8957 43.6255 12.3166V12.9927C43.6255 13.5694 43.725 14.0583 43.9238 14.4593C44.126 14.8571 44.4061 15.1603 44.764 15.3691C45.122 15.5746 45.5379 15.6774 46.0119 15.6774C46.3201 15.6774 46.5985 15.6343 46.8471 15.5481C47.099 15.4586 47.3161 15.3261 47.4984 15.1504C47.6807 14.9714 47.8216 14.7493 47.921 14.4842L49.0545 14.8024C48.9352 15.1868 48.7347 15.5249 48.4529 15.8166C48.1712 16.1049 47.8232 16.3303 47.4089 16.4927C46.9946 16.6518 46.5289 16.7314 46.0119 16.7314ZM53.8422 16.7314C53.2058 16.7314 52.644 16.5706 52.1568 16.2491C51.6696 15.9243 51.2884 15.4669 51.0133 14.877C50.7382 14.2837 50.6007 13.5827 50.6007 12.774C50.6007 11.9719 50.7382 11.2759 51.0133 10.6859C51.2884 10.0959 51.6712 9.64021 52.1618 9.31871C52.6523 8.99722 53.219 8.83647 53.862 8.83647C54.3592 8.83647 54.752 8.91933 55.0403 9.08505C55.332 9.24746 55.554 9.43306 55.7065 9.64187C55.8623 9.84736 55.9833 10.0164 56.0694 10.149H56.1689V6.39045H57.3422V16.5723H56.2086V15.399H56.0694C55.9833 15.5382 55.8606 15.7138 55.7015 15.926C55.5424 16.1348 55.3154 16.322 55.0204 16.4877C54.7254 16.6502 54.3327 16.7314 53.8422 16.7314ZM54.0012 15.6774C54.4719 15.6774 54.8696 15.5547 55.1944 15.3095C55.5192 15.0609 55.7662 14.7179 55.9352 14.2804C56.1042 13.8395 56.1887 13.3308 56.1887 12.7541C56.1887 12.184 56.1059 11.6852 55.9402 11.2576C55.7744 10.8268 55.5292 10.492 55.2044 10.2534C54.8796 10.0114 54.4785 9.89045 54.0012 9.89045C53.5041 9.89045 53.0898 10.0181 52.7583 10.2733C52.4302 10.5252 52.1833 10.8682 52.0176 11.3024C51.8552 11.7333 51.774 12.2172 51.774 12.7541C51.774 13.2976 51.8568 13.7915 52.0225 14.2356C52.1916 14.6764 52.4402 15.0278 52.7683 15.2896C53.0997 15.5481 53.5107 15.6774 54.0012 15.6774ZM63.7505 16.5723V6.39045H64.9238V10.149H65.0233C65.1094 10.0164 65.2288 9.84736 65.3812 9.64187C65.537 9.43306 65.7591 9.24746 66.0474 9.08505C66.3391 8.91933 66.7335 8.83647 67.2306 8.83647C67.8736 8.83647 68.4404 8.99722 68.9309 9.31871C69.4215 9.64021 69.8043 10.0959 70.0794 10.6859C70.3545 11.2759 70.492 11.9719 70.492 12.774C70.492 13.5827 70.3545 14.2837 70.0794 14.877C69.8043 15.4669 69.4231 15.9243 68.9359 16.2491C68.4487 16.5706 67.8869 16.7314 67.2505 16.7314C66.76 16.7314 66.3672 16.6502 66.0723 16.4877C65.7773 16.322 65.5502 16.1348 65.3912 15.926C65.2321 15.7138 65.1094 15.5382 65.0233 15.399H64.8841V16.5723H63.7505ZM64.9039 12.7541C64.9039 13.3308 64.9885 13.8395 65.1575 14.2804C65.3265 14.7179 65.5734 15.0609 65.8983 15.3095C66.2231 15.5547 66.6208 15.6774 67.0914 15.6774C67.582 15.6774 67.9913 15.5481 68.3194 15.2896C68.6509 15.0278 68.8994 14.6764 69.0652 14.2356C69.2342 13.7915 69.3187 13.2976 69.3187 12.7541C69.3187 12.2172 69.2359 11.7333 69.0701 11.3024C68.9077 10.8682 68.6608 10.5252 68.3294 10.2733C68.0012 10.0181 67.5886 9.89045 67.0914 9.89045C66.6142 9.89045 66.2131 10.0114 65.8883 10.2534C65.5635 10.492 65.3182 10.8268 65.1525 11.2576C64.9868 11.6852 64.9039 12.184 64.9039 12.7541ZM72.769 19.4359C72.5701 19.4359 72.3928 19.4193 72.237 19.3862C72.0813 19.3564 71.9735 19.3265 71.9139 19.2967L72.2122 18.2626C72.4972 18.3355 72.7491 18.362 72.9679 18.3422C73.1866 18.3223 73.3805 18.2245 73.5495 18.0488C73.7219 17.8765 73.8793 17.5964 74.0218 17.2086L74.2406 16.612L71.4167 8.9359H72.6895L74.7974 15.0211H74.877L76.9849 8.9359H78.2576L75.0162 17.6859C74.8703 18.0803 74.6897 18.4068 74.4743 18.6653C74.2588 18.9271 74.0086 19.121 73.7235 19.247C73.4418 19.3729 73.1236 19.4359 72.769 19.4359Z" fill="#D9DBF2"/>
<g clip-path="url(#clip0_226_15056)">
<g clip-path="url(#clip1_226_15056)">
<path d="M88.0205 10.8678C87.4742 10.3651 86.8499 10.197 86.1166 10.197C85.211 10.197 84.7119 10.4714 84.7119 10.9439C84.7119 11.4165 85.1639 11.7051 86.1508 11.7733C87.6027 11.8653 89.4447 12.184 89.4447 14.1789C89.4447 15.503 88.3359 16.6448 86.1361 16.6448C84.9184 16.6448 83.6974 16.4466 82.5771 15.3048L83.5136 13.9807C84.0599 14.5738 85.3021 15.0162 86.167 15.0305C86.884 15.0463 87.5555 14.6816 87.5555 14.1329C87.5555 13.616 87.1181 13.4019 86.0256 13.34C84.5721 13.2274 82.8389 12.7089 82.8389 11.0042C82.8389 9.26934 84.681 8.6604 86.0906 8.6604C87.2921 8.6604 88.2042 8.88875 89.0871 9.64993L88.0205 10.8678Z" fill="#D9DBF2"/>
<path d="M90.6587 19.5134V8.87281H92.4374L92.5626 9.90832C93.156 9.07103 94.1884 8.7063 95.0599 8.7063C97.432 8.7063 99.0074 10.4253 99.0074 12.6327C99.0074 14.8401 97.5881 16.5607 95.1216 16.5607C94.3087 16.5607 93.1088 16.3164 92.5626 15.495V19.5134H90.6587ZM97.1036 12.6327C97.1036 11.456 96.2923 10.5046 94.9184 10.5046C93.5446 10.5046 92.7333 11.456 92.7333 12.6327C92.7333 13.1979 92.9635 13.74 93.3733 14.1397C93.7831 14.5394 94.3389 14.764 94.9184 14.764C95.498 14.764 96.0538 14.5394 96.4635 14.1397C96.8733 13.74 97.1036 13.1979 97.1036 12.6327Z" fill="#D9DBF2"/>
<path d="M102.176 8.87291L102.317 9.74033C102.911 8.81265 103.706 8.67627 104.486 8.67627C105.267 8.67627 106.047 8.97915 106.473 9.39463L105.615 11.0074C105.43 10.8421 105.214 10.7141 104.978 10.6305C104.743 10.547 104.493 10.5096 104.242 10.5205C103.243 10.5205 102.322 11.0375 102.322 12.4235V16.372H100.414V8.87291H102.176Z" fill="#D9DBF2"/>
<path d="M116.474 16.3719V12.4502C116.474 11.3085 115.833 10.4411 114.616 10.4411C113.445 10.4411 112.65 11.3925 112.65 12.5422V16.3719H110.761V8.85844H112.463L112.587 9.8781C113.367 9.1312 114.147 8.7522 115.116 8.7522C116.926 8.7522 118.378 10.0763 118.378 12.436V16.3719H116.474Z" fill="#D9DBF2"/>
<path d="M126.087 19.5134V15.495C125.541 16.3164 124.34 16.5607 123.528 16.5607C121.062 16.5607 119.643 14.8258 119.643 12.6327C119.643 10.4396 121.218 8.7063 123.59 8.7063C124.465 8.7063 125.496 9.07103 126.087 9.90832L126.213 8.87281H127.991V19.5134H126.087ZM125.917 12.6327C125.917 11.4608 125.104 10.5014 123.732 10.5014C122.359 10.5014 121.546 11.456 121.546 12.6327C121.546 13.1979 121.777 13.74 122.186 14.1397C122.596 14.5394 123.152 14.764 123.732 14.764C124.311 14.764 124.867 14.5394 125.277 14.1397C125.687 13.74 125.917 13.1979 125.917 12.6327Z" fill="#D9DBF2"/>
<path d="M131.459 8.8728V12.8008C131.459 13.9425 132.098 14.81 133.315 14.81C134.486 14.81 135.283 13.8585 135.283 12.7088V8.8728H137.17V16.3926H135.47L135.344 15.3729C134.549 16.1341 133.814 16.5004 132.743 16.5004C130.901 16.5004 129.56 15.1446 129.56 12.8166V8.8728H131.459Z" fill="#D9DBF2"/>
<path d="M140.48 13.2877C140.603 14.217 141.431 14.8862 142.774 14.8862C143.476 14.8862 144.4 14.6277 144.834 14.1852L146.051 15.3587C145.239 16.1801 143.912 16.5766 142.743 16.5766C140.089 16.5766 138.516 14.9781 138.516 12.5725C138.516 10.289 140.107 8.64453 142.605 8.64453C145.18 8.64453 146.788 10.197 146.49 13.2877H140.48ZM144.661 11.7511C144.536 10.7758 143.756 10.289 142.665 10.289C141.634 10.289 140.792 10.7758 140.511 11.7511H144.661Z" fill="#D9DBF2"/>
<path d="M107.902 7.92546C108.638 7.92546 109.186 7.43649 109.186 6.76414C109.186 6.06124 108.638 5.57227 107.902 5.57227C107.166 5.57227 106.633 6.06124 106.633 6.76414C106.633 7.43649 107.166 7.92546 107.902 7.92546Z" fill="#D9DBF2"/>
<path d="M107.902 13.7587C108.638 13.7587 109.186 13.2697 109.186 12.5974C109.186 11.8945 108.638 11.4055 107.902 11.4055C107.166 11.4055 106.634 11.8945 106.634 12.5974C106.634 13.2697 107.166 13.7587 107.902 13.7587Z" fill="#D9DBF2"/>
<path d="M107.904 16.6755C108.64 16.6755 109.188 16.1865 109.188 15.5141C109.188 14.8112 108.64 14.3223 107.904 14.3223C107.168 14.3223 106.636 14.8112 106.636 15.5141C106.636 16.1865 107.168 16.6755 107.904 16.6755Z" fill="#D9DBF2"/>
<path d="M107.904 10.8422C108.64 10.8422 109.188 10.3532 109.188 9.68089C109.188 8.97799 108.64 8.48901 107.904 8.48901C107.168 8.48901 106.636 8.97799 106.636 9.68089C106.636 10.3532 107.168 10.8422 107.904 10.8422Z" fill="#D9DBF2"/>
</g>
</g>
<defs>
<clipPath id="clip0_226_15056">
<rect width="64" height="14" fill="#ABAFFC" transform="translate(82.5273 5.57227)"/>
</clipPath>
<clipPath id="clip1_226_15056">
<rect width="64.2953" height="14" fill="#ABAFFC" transform="translate(82.2275 5.57227)"/>
</clipPath>
</defs>
</svg>
